<?xml version="1.0" encoding="utf-8"?>
<!-- Generator: Adobe Illustrator 16.0.0, SVG Export Plug-In . SVG Version: 6.00 Build 0)  -->
<!DOCTYPE svg PUBLIC "-//W3C//DTD SVG 1.1//EN" "http://www.w3.org/Graphics/SVG/1.1/DTD/svg11.dtd">
<svg version="1.1" id="Layer_1" xmlns="http://www.w3.org/2000/svg" xmlns:xlink="http://www.w3.org/1999/xlink" x="0px" y="0px"
	 width="980px" height="433px" viewBox="0 0 980 433" enable-background="new 0 0 980 433" xml:space="preserve">
<g>
	<g>
		<path fill="#E31A55" d="M7.42,198.97v37.286H0v-90.03h26.65c7.873,0,13.974,2.412,18.303,7.235
			c4.328,4.823,6.493,11.192,6.493,19.106c0,7.998-2.165,14.397-6.493,19.2c-4.329,4.803-10.43,7.204-18.303,7.204H7.42z
			 M7.42,192.478h19.23c5.771,0,10.1-1.886,12.985-5.658c2.885-3.771,4.328-8.481,4.328-14.129c0-5.729-1.443-10.481-4.328-14.253
			c-2.886-3.772-7.215-5.658-12.985-5.658H7.42V192.478z"/>
		<path fill="#E31A55" d="M70.279,195.507v40.749h-7.42v-89.969h25.846c8.079,0,14.262,2.121,18.55,6.361
			c4.287,4.241,6.432,10.417,6.432,18.526c0,4.777-1.135,9.028-3.402,12.753c-2.268,3.726-5.483,6.474-9.646,8.244
			c4.575,1.404,7.863,3.921,9.862,7.555c2,3.633,2.999,8.152,2.999,13.559v8.481c0,2.807,0.269,5.325,0.804,7.555
			c0.535,2.228,1.442,4.044,2.721,5.446v1.487h-7.605c-1.278-1.487-2.154-3.557-2.628-6.202c-0.474-2.646-0.711-5.457-0.711-8.435
			v-8.249c0-5.458-1.381-9.8-4.143-13.025c-2.762-3.225-6.555-4.838-11.377-4.838H70.279z M70.279,189.201h17.561
			c6.347,0,10.996-1.618,13.944-4.854c2.947-3.235,4.421-7.636,4.421-13.202c0-5.895-1.443-10.428-4.329-13.604
			c-2.886-3.174-7.276-4.761-13.17-4.761H70.279V189.201z"/>
		<path fill="#E31A55" d="M172.278,192.725h-35.37v37.224h40.625v6.307h-48.045v-90.03h47.675v6.555h-40.255v33.638h35.37V192.725z"
			/>
		<path fill="#E31A55" d="M239.032,152.78h-25.167v83.476h-7.42V152.78H181.34v-6.555h57.692V152.78z"/>
		<path fill="#E31A55" d="M299.293,152.78h-25.167v83.476h-7.42V152.78h-25.105v-6.555h57.692V152.78z"/>
		<path fill="#E31A55" d="M331.604,193.9h0.372l21.766-47.674h8.471l-26.773,57.012v33.019h-7.42v-33.39l-26.652-56.64h8.595
			L331.604,193.9z"/>
	</g>
	<g opacity="0.4">
		<ellipse fill="#959595" cx="484.189" cy="368.393" rx="39.627" ry="8.462"/>
	</g>
	<g>
		<g>
			<path fill="#E31A55" d="M596.091,171.865c0.023-0.928,0.038-1.853,0.038-2.78c0-61.823-50.119-111.938-111.942-111.938
				c-61.823,0-111.938,50.116-111.938,111.938c0,0.928,0.015,1.853,0.034,2.78c0.004,0.087,0.007,0.169,0.007,0.252
				c2.323,94.474,111.897,196.276,111.897,196.276s109.579-101.802,111.9-196.276C596.087,172.034,596.091,171.952,596.091,171.865z
				"/>
		</g>
		<g>
			<path fill="#D01D5B" d="M484.187,368.393c0,0,109.579-101.802,111.9-196.276c0-0.083,0.004-0.165,0.004-0.252
				c0.023-0.928,0.038-1.853,0.038-2.78c0-19.685-5.087-38.178-14.008-54.249L413.567,283.391
				C445.463,332.416,484.187,368.393,484.187,368.393z"/>
		</g>
		<g>
			<path fill="#E1E2E0" d="M569.567,169.084c0,47.155-38.223,85.382-85.381,85.382c-47.151,0-85.378-38.228-85.378-85.382
				c0-47.154,38.228-85.382,85.378-85.382C531.345,83.703,569.567,121.93,569.567,169.084z"/>
		</g>
		<g>
			<path fill="#D2D9DC" d="M484.187,254.467c47.158,0,85.381-38.228,85.381-85.382c0-12.26-2.588-23.916-7.243-34.455
				L449.735,247.222C460.271,251.873,471.927,254.467,484.187,254.467z"/>
		</g>
		<g>
			<path fill="#CFCDCC" d="M541.46,232.407c-0.414-0.914-0.839-1.763-1.268-2.532c-4.227-7.568-16.558-12.178-24.305-14.414
				c6.244-3.171,9.032-8.469,9.032-8.469c-4.035,2.153-6.067-0.229-6.067-0.229c9.72-4.438,5.703-18.971,5.703-18.971
				c-5.358,10.257-20.418,8.661-24.746-0.879c3.862-4.505,9.006-11.618,9.746-18.269c0,0,5.362,1.842,6.166-7.789
				c0.805-9.63-4.82-7.624-4.82-7.624s1.025-20.026-5.798-27.65c-1.446-1.619-2.89-3.16-4.366-4.592
				c-0.041-0.195-0.083-0.402-0.131-0.578c-3.047-10.701-17.6-16.051-26.625-13.29c-6.433,1.968-8.188,6.842-8.668,9.487
				c-3.464,2.393-6.52,5.516-9.611,8.972c-6.823,7.624-5.797,27.65-5.797,27.65s-5.625-2.007-4.821,7.624
				c0.804,9.63,6.166,7.789,6.166,7.789c1.202,10.837,14.105,22.909,14.105,22.909c0.176,8.521,3.197,15.72-2.42,18.129
				c-7.011-1.878-11.422,4.141-11.422,4.141s-21.402,4.103-29.402,13.876c15.563,16.479,37.619,26.768,62.075,26.768
				C506.228,254.467,526.314,246.113,541.46,232.407z"/>
		</g>
		<g>
			<path fill="#BDC2C4" d="M484.187,254.467c22.041,0,42.128-8.354,57.273-22.06c-0.414-0.914-0.839-1.763-1.268-2.532
				c-4.227-7.568-16.558-12.178-24.305-14.414c6.244-3.171,9.032-8.469,9.032-8.469c-4.035,2.153-6.067-0.229-6.067-0.229
				c9.72-4.438,5.703-18.971,5.703-18.971c-4.058,7.77-13.681,8.736-19.993,4.599l-54.83,54.834
				C460.271,251.877,471.927,254.467,484.187,254.467z"/>
		</g>
		<g opacity="0.6">
			<g>
				<path fill="#FFFFFF" d="M410.705,170.625c-0.598,0-1.195-0.226-1.649-0.684c-0.914-0.91-0.914-2.39,0-3.299l67.324-67.325
					c0.909-0.909,2.39-0.909,3.299,0c0.913,0.913,0.913,2.39,0,3.303l-67.32,67.32C411.899,170.399,411.302,170.625,410.705,170.625
					z"/>
			</g>
		</g>
		<g opacity="0.6">
			<g>
				<path fill="#FFFFFF" d="M418.734,144.068c-0.597,0-1.195-0.229-1.65-0.684c-0.913-0.913-0.913-2.39,0-3.303l37.059-37.059
					c0.909-0.909,2.39-0.909,3.299,0c0.914,0.913,0.914,2.394,0,3.303l-37.054,37.059
					C419.929,143.839,419.332,144.068,418.734,144.068z"/>
			</g>
		</g>
		<g opacity="0.6">
			<g>
				<path fill="#FFFFFF" d="M460.842,138.658c-0.598,0-1.195-0.225-1.649-0.684c-0.913-0.909-0.913-2.389,0-3.299l25.474-25.479
					c0.914-0.913,2.391-0.913,3.304,0c0.912,0.913,0.912,2.39,0,3.303l-25.479,25.475
					C462.038,138.433,461.439,138.658,460.842,138.658z"/>
			</g>
		</g>
	</g>
	<g>
		<g>
			<path fill="#231F20" d="M663.121,208.801l0.187,0.373c-0.083,8.78-2.392,15.489-6.927,20.127
				c-4.534,4.638-10.779,6.955-18.735,6.955c-8.285,0-14.861-2.925-19.725-8.78c-4.864-5.852-7.296-14.199-7.296-25.042v-24.919
				c0-10.759,2.441-19.096,7.327-25.012c4.885-5.915,11.448-8.874,19.693-8.874c8.039,0,14.305,2.268,18.798,6.802
				s6.781,11.295,6.864,20.281l-0.187,0.371h-6.863c-0.206-7.131-1.854-12.398-4.946-15.799s-7.646-5.101-13.666-5.101
				c-6.183,0-11.006,2.333-14.469,6.998c-3.462,4.666-5.194,11.396-5.194,20.19v25.143c0,8.961,1.732,15.772,5.194,20.438
				c3.463,4.666,8.286,6.997,14.469,6.997c6.02,0,10.574-1.668,13.666-5.006c3.092-3.339,4.74-8.718,4.946-16.143H663.121z"/>
			<path fill="#231F20" d="M683.314,228.651h36.358v6.307h-43.841v-90.03h7.482V228.651z"/>
			<path fill="#231F20" d="M777.77,202.619c0,10.924-2.546,19.262-7.637,25.013c-5.091,5.749-12.067,8.624-20.931,8.624
				c-8.698,0-15.531-2.875-20.498-8.624c-4.968-5.751-7.451-14.089-7.451-25.013v-25.229c0-10.923,2.474-19.282,7.42-25.074
				c4.947-5.791,11.77-8.688,20.468-8.688c8.862,0,15.85,2.906,20.962,8.719c5.11,5.812,7.667,14.16,7.667,25.043V202.619z
				 M770.411,177.205c0-8.904-1.835-15.603-5.503-20.096c-3.67-4.493-8.926-6.74-15.768-6.74c-6.638,0-11.729,2.248-15.272,6.74
				c-3.546,4.494-5.318,11.192-5.318,20.096v25.414c0,9.026,1.772,15.79,5.318,20.281c3.544,4.493,8.655,6.741,15.334,6.741
				c6.843,0,12.088-2.248,15.737-6.741c3.647-4.491,5.472-11.255,5.472-20.281V177.205z"/>
			<path fill="#231F20" d="M832.528,212.95c0-4.922-1.434-8.923-4.298-12.005c-2.865-3.081-7.905-5.8-15.118-8.158
				c-8.204-2.514-14.418-5.76-18.643-9.739c-4.227-3.978-6.339-9.306-6.339-15.984c0-6.884,2.359-12.511,7.08-16.88
				c4.72-4.369,10.811-6.555,18.272-6.555c7.832,0,14.129,2.577,18.89,7.729c4.762,5.153,7.081,11.439,6.956,18.859l-0.185,0.371
				h-6.987c0-5.977-1.66-10.872-4.978-14.686c-3.319-3.812-7.884-5.719-13.696-5.719c-5.648,0-10.038,1.587-13.172,4.761
				c-3.133,3.175-4.698,7.152-4.698,11.934c0,4.452,1.515,8.193,4.544,11.223c3.03,3.03,8.173,5.679,15.429,7.946
				c7.997,2.473,14.067,5.823,18.21,10.048c4.143,4.226,6.214,9.781,6.214,16.665c0,7.214-2.442,12.935-7.327,17.16
				c-4.885,4.225-11.161,6.336-18.828,6.336c-7.544,0-14.109-2.266-19.694-6.801c-5.586-4.533-8.276-11.108-8.069-19.725
				l0.123-0.372h6.926c0,7.051,2.03,12.246,6.091,15.583c4.06,3.34,8.936,5.008,14.624,5.008c5.605,0,10.119-1.55,13.542-4.653
				C830.816,222.195,832.528,218.08,832.528,212.95z"/>
			<path fill="#231F20" d="M894.15,191.427h-35.37v37.225h40.625v6.307H851.36v-90.03h47.675v6.555H858.78v33.638h35.37V191.427z"/>
		</g>
		<g>
			<path fill="#E31A55" d="M917.757,143.502c3.561-3.08,6.426-5.654,8.593-7.726c2.166-2.069,4.163-3.441,5.993-4.116
				c0.383-0.095,0.745-0.167,1.083-0.217c0.336-0.047,0.697-0.072,1.083-0.072c0.578,0,1.033,0.097,1.372,0.289
				c0.336,0.194,0.601,0.434,0.795,0.722c0,0.097,0.021,0.194,0.071,0.289c0.048,0.097,0.072,0.194,0.072,0.289
				c0,0.578-0.288,1.3-0.866,2.166c-0.578,0.867-1.205,1.733-1.877,2.6c-0.098,0.097-0.169,0.169-0.218,0.217
				c-0.049,0.049-0.072,0.122-0.072,0.216c-0.674,0.866-1.323,1.732-1.948,2.6c-0.629,0.866-0.989,1.541-1.084,2.021
				c0.961-0.672,1.95-1.444,2.961-2.311s1.997-1.733,2.961-2.6c2.311-2.117,4.549-4.044,6.715-5.776
				c2.166-1.733,4.211-2.6,6.138-2.6c1.25,0,2.069,0.217,2.455,0.65c0.384,0.433,0.578,0.938,0.578,1.516
				c0,0.388-0.098,0.824-0.29,1.306c-0.193,0.483-0.433,0.966-0.721,1.449c-0.29,0.388-0.578,0.776-0.867,1.162
				c-0.289,0.388-0.53,0.727-0.722,1.015c-0.097,0.097-0.169,0.169-0.217,0.217c-0.05,0.05-0.122,0.122-0.217,0.216
				c-1.639,1.354-3.177,2.975-4.621,4.861c-1.445,1.886-2.697,3.843-3.756,5.874c-0.866,1.742-1.54,3.412-2.021,5.007
				c-0.482,1.595-0.722,3.021-0.722,4.279c0,0.965,0.167,1.836,0.506,2.611c0.335,0.773,0.794,1.401,1.371,1.884
				c0.29,0.194,0.529,0.438,0.723,0.727c0.192,0.291,0.336,0.63,0.434,1.015c0.094,0.194,0.167,0.386,0.216,0.58
				c0.047,0.194,0.072,0.386,0.072,0.58c0,0.097,0,0.169,0,0.217c0,0.05,0,0.122,0,0.216c-0.097,0.578-0.41,1.155-0.938,1.733
				c-0.53,0.578-1.133,0.963-1.805,1.155c-0.194,0.097-0.362,0.169-0.506,0.216c-0.145,0.05-0.313,0.072-0.506,0.072
				c-0.097,0-0.241-0.022-0.433-0.072c-0.194-0.047-0.339-0.12-0.434-0.216c-0.289-0.095-0.577-0.289-0.867-0.578
				c-0.288-0.289-0.576-0.625-0.866-1.011c-0.771-1.347-1.493-2.767-2.166-4.261c-0.675-1.491-1.011-3.105-1.011-4.838
				c0-1.925,0.506-4.139,1.517-6.643c1.011-2.502,2.575-5.344,4.693-8.521c-5.683,4.622-9.484,8.787-11.408,12.492
				c-1.928,3.708-3.467,6.476-4.622,8.304c-0.482,0.772-1.011,1.372-1.589,1.805c-0.577,0.433-1.253,0.65-2.021,0.65
				c-0.675,0-1.205-0.239-1.589-0.722c-0.386-0.481-0.577-1.058-0.577-1.733c0-1.155,0.288-2.622,0.866-4.405
				c0.577-1.78,1.3-3.586,2.166-5.416c0.384-0.867,0.794-1.733,1.228-2.6c0.433-0.867,0.89-1.684,1.372-2.455
				c0.48-0.961,0.986-1.853,1.517-2.671c0.528-0.817,1.033-1.564,1.516-2.239c-3.177,1.927-5.971,4.549-8.376,7.871
				c-2.407,3.322-4.382,6.765-5.921,10.326c-0.289,0.674-0.577,1.349-0.867,2.021c-0.288,0.675-0.529,1.349-0.722,2.022
				c-0.096,0.675-0.338,1.252-0.722,1.733c-0.386,0.483-0.867,0.819-1.444,1.011c-0.097,0.097-0.194,0.144-0.289,0.144
				c-0.097,0-0.193,0-0.288,0c-0.289-0.095-0.481-0.144-0.578-0.144c-0.577-0.289-1.058-0.745-1.444-1.373
				c-0.384-0.625-0.577-1.372-0.577-2.238c0.288-1.932,0.866-4.229,1.732-6.888c0.867-2.658,1.926-5.391,3.178-8.193
				c0.77-1.836,1.563-3.624,2.383-5.363c0.816-1.74,1.661-3.385,2.527-4.933c1.636-2.997,3.224-5.461,4.766-7.395
				c1.539-1.932,2.791-2.9,3.755-2.9c0.77,0,1.348,0.097,1.732,0.289c0.384,0.194,0.673,0.433,0.867,0.722c0,0.097,0,0.194,0,0.289
				c0,0.771-0.458,1.855-1.372,3.25c-0.916,1.397-1.949,3.058-3.105,4.982c-0.482,0.771-0.964,1.613-1.443,2.527
				c-0.482,0.917-0.917,1.903-1.3,2.961V143.502z"/>
			<path fill="#E31A55" d="M952.85,153.901c0,1.927,0.434,3.371,1.3,4.333c0.867,0.963,1.925,1.444,3.178,1.444
				c1.25,0,2.767-0.384,4.549-1.156c1.78-0.769,3.634-1.78,5.561-3.032c1.538-1.059,3.08-2.261,4.62-3.61
				c1.54-1.347,2.937-2.792,4.189-4.333c0.577-0.77,1.13-1.3,1.66-1.589c0.528-0.289,0.938-0.433,1.228-0.433
				s0.506,0.145,0.649,0.433c0.145,0.289,0.217,0.578,0.217,0.867c0,0.097,0,0.194,0,0.289v1.155
				c-0.386,1.061-1.06,2.216-2.021,3.466c-0.964,1.253-2.119,2.505-3.467,3.755c-1.638,1.541-3.466,3.01-5.486,4.405
				c-2.022,1.396-4.094,2.624-6.21,3.683c-1.35,0.577-2.722,1.061-4.116,1.444c-1.397,0.385-2.722,0.577-3.972,0.577
				c-1.541,0-2.961-0.336-4.261-1.011c-1.299-0.672-2.383-1.684-3.249-3.033c-0.289-0.578-0.506-1.178-0.65-1.806
				c-0.145-0.625-0.264-1.274-0.36-1.95c-0.096-0.288-0.145-0.6-0.145-0.938c0-0.336,0-0.65,0-0.938
				c0-0.961,0.072-1.997,0.217-3.105c0.144-1.106,0.408-2.189,0.794-3.25c0.578-1.733,1.275-3.417,2.095-5.055
				c0.816-1.636,1.708-3.127,2.671-4.477c0.48-0.77,0.962-1.492,1.444-2.167c0.481-0.672,0.961-1.25,1.444-1.733
				c0.48-0.384,0.961-0.817,1.443-1.3c0.481-0.48,0.962-0.961,1.444-1.444c0.866-0.672,1.756-1.372,2.673-2.094
				c0.913-0.722,1.852-1.372,2.815-1.95c0.962-0.578,1.95-1.058,2.961-1.444c1.011-0.384,1.949-0.578,2.815-0.578
				c0.192,0,0.408,0.025,0.65,0.072c0.239,0.05,0.455,0.072,0.649,0.072c0.096,0,0.168,0.025,0.217,0.072
				c0.048,0.05,0.12,0.073,0.217,0.073c0.191,0,0.361,0.024,0.505,0.072c0.145,0.049,0.265,0.072,0.362,0.072
				c0.576,0.385,1.082,0.916,1.517,1.588c0.433,0.675,0.696,1.349,0.794,2.022c0.094,0.194,0.145,0.385,0.145,0.577
				c0,0.194,0,0.386,0,0.578c0,0.866-0.17,1.758-0.506,2.672c-0.339,0.916-0.748,1.854-1.228,2.816
				c-0.578,1.061-1.278,2.119-2.095,3.177c-0.819,1.06-1.66,2.022-2.526,2.888c-0.772,0.963-1.566,1.805-2.383,2.527
				c-0.819,0.722-1.517,1.325-2.095,1.805c-0.675,0.675-1.444,1.3-2.311,1.877s-1.733,1.108-2.6,1.589
				c-0.964,0.483-1.927,0.916-2.889,1.299c-0.964,0.386-1.782,0.675-2.455,0.867V153.901z M953.716,147.402
				c0.674,0.097,1.301,0.097,1.878,0c0.577-0.094,1.106-0.288,1.589-0.577c1.155-0.384,2.358-1.058,3.61-2.022
				c1.25-0.961,2.647-2.213,4.188-3.755c0.289-0.289,0.529-0.553,0.723-0.794c0.191-0.239,0.383-0.505,0.577-0.794
				c0.578-0.769,1.011-1.539,1.301-2.31c0.288-0.77,0.433-1.347,0.433-1.733c0-0.481-0.17-0.867-0.505-1.155
				c-0.339-0.289-0.747-0.434-1.229-0.434c-0.386,0-0.963,0.194-1.732,0.578c-0.772,0.386-1.589,0.963-2.455,1.733
				c-0.482,0.483-0.988,1.036-1.517,1.661c-0.53,0.627-1.083,1.277-1.66,1.95c-0.386,0.578-0.819,1.181-1.301,1.806
				c-0.482,0.627-0.915,1.227-1.299,1.805c-0.578,0.675-1.084,1.372-1.517,2.094c-0.434,0.722-0.794,1.422-1.084,2.095V147.402z"/>
		</g>
	</g>
</g>
</svg>
